[
    "spark3-submit",
    "--driver-cores",
    "2",
    "--conf",
    "spark.executorEnv.PYSPARK_DRIVER_PYTHON=venv/bin/python",
    "--conf",
    "spark.executorEnv.PYSPARK_PYTHON=venv/bin/python",
    "--conf",
    "spark.executorEnv.SPARK_CONF_DIR=/etc/spark3/conf",
    "--master",
    "yarn",
    "--conf",
    "spark.dynamicAllocation.enabled=true",
    "--conf",
    "spark.dynamicAllocation.maxExecutors=75",
    "--conf",
    "spark.executor.memoryOverhead=876m",
    "--conf",
    "spark.shuffle.service.enabled=true",
    "--conf",
    "spark.sql.shuffle.partitions=1000",
    "--conf",
    "spark.task.cpus=6",
    "--conf",
    "spark.yarn.maxAppAttempts=1",
    "--conf",
    "spark.yarn.appMasterEnv.SPARK_CONF_DIR=/etc/spark3/conf",
    "--conf",
    "spark.yarn.appMasterEnv.PYSPARK_PYTHON=venv/bin/python",
    "--conf",
    "spark.yarn.appMasterEnv.PYSPARK_DRIVER_PYTHON=venv/bin/python",
    "--archives",
    "hdfs:///wmf/cache/artifacts/airflow/search/mjolnir-2.2.0.conda.tgz#venv",
    "--jars",
    "hdfs:///wmf/cache/artifacts/airflow/search/mjolnir-2.0.jar,hdfs://analytics-hadoop/wmf/refinery/current/artifacts/refinery-hive-shaded.jar",
    "--executor-cores",
    "6",
    "--executor-memory",
    "2g",
    "--driver-memory",
    "2g",
    "--keytab",
    "airflow.keytab",
    "--principal",
    "airflow",
    "--name",
    "mjolnir_weekly__train-arwiki-dbn-20180215-query_explorer-pruned_mrmr__20230220",
    "--queue",
    "production",
    "--deploy-mode",
    "cluster",
    "venv/bin/mjolnir-utilities.py",
    "train",
    "--date",
    "20230220",
    "--output-path",
    "hdfs://analytics-hadoop/wmf/data/discovery/mjolnir/trained_models/date=20230220/wikiid=arwiki/labeling_algorithm=dbn/feature_set=20180215-query_explorer-pruned_mrmr",
    "--model-parameters-table",
    "mjolnir.model_parameters",
    "--training-files-path",
    "hdfs://analytics-hadoop/wmf/data/discovery/mjolnir/training_files/date=20230220/wikiid=arwiki/labeling_algorithm=dbn/feature_set=20180215-query_explorer-pruned_mrmr",
    "--remote-feature-set",
    "20180215-query_explorer"
]