[
    "spark3-submit",
    "--driver-cores",
    "2",
    "--conf",
    "spark.executorEnv.PYSPARK_DRIVER_PYTHON=venv/bin/python",
    "--conf",
    "spark.executorEnv.PYSPARK_PYTHON=venv/bin/python",
    "--conf",
    "spark.executorEnv.SPARK_CONF_DIR=/etc/spark3/conf",
    "--master",
    "yarn",
    "--conf",
    "spark.dynamicAllocation.enabled=true",
    "--conf",
    "spark.dynamicAllocation.maxExecutors=409",
    "--conf",
    "spark.executor.memoryOverhead=512m",
    "--conf",
    "spark.shuffle.service.enabled=true",
    "--conf",
    "spark.sql.shuffle.partitions=1000",
    "--conf",
    "spark.yarn.maxAppAttempts=1",
    "--conf",
    "spark.yarn.appMasterEnv.SPARK_CONF_DIR=/etc/spark3/conf",
    "--conf",
    "spark.yarn.appMasterEnv.PYSPARK_PYTHON=venv/bin/python",
    "--conf",
    "spark.yarn.appMasterEnv.PYSPARK_DRIVER_PYTHON=venv/bin/python",
    "--archives",
    "hdfs:///wmf/cache/artifacts/airflow/search/mjolnir-2.2.0.conda.tgz#venv",
    "--jars",
    "hdfs:///wmf/cache/artifacts/airflow/search/mjolnir-2.0.jar,hdfs://analytics-hadoop/wmf/refinery/current/artifacts/refinery-hive-shaded.jar",
    "--executor-cores",
    "1",
    "--executor-memory",
    "2g",
    "--driver-memory",
    "4G",
    "--keytab",
    "airflow.keytab",
    "--principal",
    "airflow",
    "--name",
    "mjolnir_weekly__feature_vectors-norm_query-20180215-query_explorer__20230220",
    "--queue",
    "production",
    "--deploy-mode",
    "cluster",
    "venv/bin/mjolnir-utilities.py",
    "feature_vectors",
    "--date",
    "20230220",
    "--output-path",
    "/path/to/mjolnir.feature_vectors/date=20230220/feature_set=20180215-query_explorer",
    "--brokers",
    "kafka-jumbo1001.eqiad.wmnet:9092,kafka-jumbo1002.eqiad.wmnet:9092,kafka-jumbo1003.eqiad.wmnet:9092",
    "--topic-request",
    "mjolnir.msearch-prod-request",
    "--topic-response",
    "mjolnir.msearch-prod-response",
    "--clicks-table",
    "mjolnir.query_clicks_ltr",
    "--clustering-table",
    "mjolnir.query_clustering",
    "--clustering-algorithm",
    "norm_query",
    "--output-table",
    "mjolnir.feature_vectors",
    "--feature-set",
    "20180215-query_explorer",
    "--samples-per-wiki",
    "27000000",
    "--wikis",
    "arwiki",
    "enwiki"
]