[
    "spark3-submit",
    "--driver-cores",
    "2",
    "--conf",
    "spark.executorEnv.SPARK_CONF_DIR=/etc/spark3/conf",
    "--master",
    "yarn",
    "--conf",
    "spark.dynamicAllocation.enabled=true",
    "--conf",
    "spark.dynamicAllocation.maxExecutors=64",
    "--conf",
    "spark.shuffle.service.enabled=true",
    "--conf",
    "spark.yarn.maxAppAttempts=1",
    "--conf",
    "spark.yarn.appMasterEnv.SPARK_CONF_DIR=/etc/spark3/conf",
    "--executor-cores",
    "4",
    "--executor-memory",
    "8g",
    "--driver-memory",
    "8g",
    "--keytab",
    "airflow.keytab",
    "--principal",
    "airflow",
    "--name",
    "subgraph_metrics_weekly__extract_general_subgraph_metrics__20220701",
    "--class",
    "org.wikidata.query.rdf.spark.metrics.SubgraphMetricsLauncher",
    "--queue",
    "production",
    "--deploy-mode",
    "cluster",
    "hdfs:///wmf/cache/artifacts/airflow/search/rdf-spark-tools-0.3.121-jar-with-dependencies.jar",
    "general-subgraph-metrics",
    "--wikidata-triples-table",
    "discovery.wikibase_rdf/date=20220627/wiki=wikidata",
    "--all-subgraphs-table",
    "discovery.all_subgraphs/snapshot=20220627/wiki=wikidata",
    "--top-subgraph-items-table",
    "discovery.top_subgraph_items/snapshot=20220627/wiki=wikidata",
    "--top-subgraph-triples-table",
    "discovery.top_subgraph_triples/snapshot=20220627/wiki=wikidata",
    "--general-subgraph-metrics-table",
    "discovery.general_subgraph_metrics/snapshot=20220627/wiki=wikidata",
    "--min-items",
    "10000"
]