[
    "spark3-submit",
    "--driver-cores",
    "2",
    "--conf",
    "spark.executorEnv.SPARK_CONF_DIR=/etc/spark3/conf",
    "--master",
    "yarn",
    "--conf",
    "spark.dynamicAllocation.enabled=true",
    "--conf",
    "spark.dynamicAllocation.maxExecutors=25",
    "--conf",
    "spark.shuffle.service.enabled=true",
    "--conf",
    "spark.yarn.maxAppAttempts=1",
    "--conf",
    "spark.yarn.appMasterEnv.SPARK_CONF_DIR=/etc/spark3/conf",
    "--executor-cores",
    "8",
    "--executor-memory",
    "16g",
    "--driver-memory",
    "4g",
    "--keytab",
    "airflow.keytab",
    "--principal",
    "airflow",
    "--name",
    "wcqs_streaming_updater_reconcile_hourly__reconcile_codfw__20220322",
    "--class",
    "org.wikidata.query.rdf.updater.reconcile.UpdaterReconcile",
    "--queue",
    "production",
    "--deploy-mode",
    "cluster",
    "hdfs:///wmf/cache/artifacts/airflow/search/rdf-spark-tools-0.3.121-jar-with-dependencies.jar",
    "--domain",
    "commons.wikimedia.org",
    "--reconciliation-source",
    "wcqs_sideoutputs_reconcile@codfw",
    "--event-gate",
    "https://eventgate-main.discovery.wmnet:4492/v1/events",
    "--late-events-partition",
    "event.rdf_streaming_updater_lapsed_action/datacenter=codfw/year=2022/month=3/day=22/hour=12",
    "--failures-partition",
    "event.rdf_streaming_updater_fetch_failure/datacenter=codfw/year=2022/month=3/day=22/hour=12",
    "--inconsistencies-partition",
    "event.rdf_streaming_updater_state_inconsistency/datacenter=codfw/year=2022/month=3/day=22/hour=12",
    "--stream",
    "rdf-streaming-updater.reconcile",
    "--entity-namespaces",
    "6",
    "--initial-to-namespace",
    "M=File",
    "--http-routes",
    "www.wikidata.org=https://api-ro.discovery.wmnet,commons.wikimedia.org=https://api-ro.discovery.wmnet"
]